{
  "GlobalConfiguration": {
    "RequestIdKey": "OcRequestId",
    "AdministrationPath": "/administration"
  },
  "ReRoutes": [
    {
      "DownstreamPathTemplate": "/aggregator/{everything}",
      "DownstreamScheme": "http",
      "DownstreamHostAndPorts": [
        {
          "Host": "web.admin.httpaggregator",
          "Port": 80
        }
      ],
      "UpstreamPathTemplate": "/aggregator/catalog-api/{everything}",
      "UpstreamHttpMethod": [ "GET" ]
    },
    {
      "DownstreamPathTemplate": "/api/catalog/{everything}",
      "DownstreamScheme": "http",
      "DownstreamHostAndPorts": [
        {
          "Host": "catalog.api",
          "Port": 80
        }
      ],
      "UpstreamPathTemplate": "/catalog-api/{everything}",
      "UpstreamHttpMethod": [ "GET" ]
    },
    {
      "DownstreamPathTemplate": "/api/catalog/{everything}",
      "DownstreamScheme": "http",
      "DownstreamHostAndPorts": [
        {
          "Host": "catalog.api",
          "Port": 80
        }
      ],
      "UpstreamPathTemplate": "/catalog-api/{everything}",
      "UpstreamHttpMethod": [ "POST", "PUT", "DELETE" ],
      "AuthenticationOptions": {
        "AuthenticationProviderKey": "IdentityApiKey",
        "AllowedScopes": []
      }
    },
    {
      "DownstreamPathTemplate": "/api/cart/{everything}",
      "DownstreamScheme": "http",
      "DownstreamHostAndPorts": [
        {
          "Host": "cart.api",
          "Port": 80
        }
      ],
      "UpstreamPathTemplate": "/cart-api/{everything}",
      "UpstreamHttpMethod": [ "GET", "POST", "PUT", "DELETE" ]
    },
    {
      "DownstreamPathTemplate": "/{everything}",
      "DownstreamScheme": "http",
      "DownstreamHostAndPorts": [
        {
          "Host": "ordering.notifications",
          "Port": 80
        }
      ],
      "UpstreamPathTemplate": "/hub/ordering/{everything}",
      "UpstreamHttpMethod": []
    },
    {
      "DownstreamPathTemplate": "/{everything}",
      "DownstreamScheme": "http",
      "DownstreamHostAndPorts": [
        {
          "Host": "payment.notifications",
          "Port": 80
        }
      ],
      "UpstreamPathTemplate": "/hub/payment/{everything}",
      "UpstreamHttpMethod": []
    },

    {
      "DownstreamPathTemplate": "/paypal/{everything}",
      "DownstreamScheme": "http",
      "DownstreamHostAndPorts": [
        {
          "Host": "payment.api",
          "Port": 80
        }
      ],
      "UpstreamPathTemplate": "/payment-api/paypal/{everything}",
      "UpstreamHttpMethod": []
    }
  ]
}